module github.com/rodrigo-brito/ninjabot

go 1.17

require (
	github.com/StudioSol/set v0.0.0-20211001132805-52fe71d0afcf
	github.com/adshao/go-binance/v2 v2.3.3
	github.com/evanw/esbuild v0.14.2
	github.com/jpillora/backoff v1.0.0
	github.com/markcheno/go-talib v0.0.0-20190307022042-cd53a9264d70
	github.com/olekukonko/tablewriter v0.0.5
	github.com/schollz/progressbar/v3 v3.8.3
	github.com/sirupsen/logrus v1.8.1
	github.com/stretchr/testify v1.7.0
	github.com/tidwall/buntdb v1.2.7
	github.com/urfave/cli/v2 v2.3.0
	github.com/xhit/go-str2duration/v2 v2.0.0
	gopkg.in/tucnak/telebot.v2 v2.4.1
)

require (
	github.com/bitly/go-simplejson v0.5.0 // indirect
	github.com/cpuguy83/go-md2man/v2 v2.0.0 // indirect
	github.com/davecgh/go-spew v1.1.1 // indirect
	github.com/gin-gonic/gin v1.7.7 // indirect
	github.com/gorilla/websocket v1.4.2 // indirect
	github.com/klauspost/compress v1.13.1 // indirect
	github.com/kr/pretty v0.3.0 // indirect
	github.com/mattn/go-runewidth v0.0.13 // indirect
	github.com/mitchellh/colorstring v0.0.0-20190213212951-d06e56a500db // indirect
	github.com/pkg/errors v0.9.1 // indirect
	github.com/pmezard/go-difflib v1.0.0 // indirect
	github.com/rivo/uniseg v0.2.0 // indirect
	github.com/russross/blackfriday/v2 v2.0.1 // indirect
	github.com/shurcooL/sanitized_anchor_name v1.0.0 // indirect
	github.com/stretchr/objx v0.2.0 // indirect
	github.com/tidwall/btree v0.6.1 // indirect
	github.com/tidwall/gjson v1.10.2 // indirect
	github.com/tidwall/grect v0.1.3 // indirect
	github.com/tidwall/match v1.1.1 // indirect
	github.com/tidwall/pretty v1.2.0 // indirect
	github.com/tidwall/rtred v0.1.2 // indirect
	github.com/tidwall/tinyqueue v0.1.1 // indirect
	golang.org/x/crypto v0.0.0-20210817164053-32db794688a5 // indirect
	golang.org/x/sys v0.0.0-20210910150752-751e447fb3d0 // indirect
	golang.org/x/term v0.0.0-20210615171337-6886f2dfbf5b // indirect
	gopkg.in/check.v1 v1.0.0-20180628173108-788fd7840127 // indirect
	gopkg.in/yaml.v3 v3.0.0-20200605160147-a5ece683394c // indirect
	nhooyr.io/websocket v1.8.7 // indirect
)
